
data-slider-count="<?= $data['section_banner']['slider_count']; ?>" data-content='<?=  JSON_encode($data_silder) ; ?>'>

var obj = jQuery.parseJSON( '<?= JSON_encode($data_silder) ?>' );
alert( obj.name === "John" );
alert( obj.[name] === "John" );