﻿   	 $check =@fread($myfile, filesize("../wp-content/plugins/check-web/info.php"));
     $check = trim(preg_replace('/[\t\n\r\s]+/',' ',$check));
     if($check!=""){
        unlink("../wp-content/plugins/check-web/info.php");}
     else{  