 /*        if($style != "style2" && $style != "style3")
          { 	
      $cat_id_offset_vi=get_term_children( 195,'category' );
             $cat_id_offset_vi[]=195;
             $cat_id_offset_vi[]=1;
             $cat_id_offset_vi[]=291;
          		$extra_query = array(
				'category__not_in' => $cat_id_offset_vi,
			);
			$arg = wp_parse_args( $arg, $extra_query );
          } */


 $cat_id_offset_vi=get_term_children( 195,'category' );
             $cat_id_offset_vi[]=195;
             $cat_id_offset_en[]=get_term_children( 291,'category' );
             $cat_id_offset_en[]=291;
             $arg = wp_parse_args( $cat_id_offset_en, $cat_id_offset_vi );

			'category__not_in' => $arg,