﻿//CODE HIEN THI SO LUOT XEM BAI VIET TRONG DASHBOARDH
if( str_replace("/creativa","",$_SERVER['REQUEST_URI'])=="/wp-admin/edit.php")
{
add_filter('manage_posts_columns', 'posts_column_views');
add_action('manage_posts_custom_column', 'posts_custom_column_views',5,2);
}
if ( ! function_exists( 'posts_column_views' ) ) {
function posts_column_views($defaults){ $defaults['post_views'] = __('Lượt xem'); return $defaults;
  }
}
if ( ! function_exists( 'posts_custom_column_views' ) ) {
function posts_custom_column_views($column_name, $id){ if($column_name === 'post_views'){ if(get_post_meta(get_the_ID(),'_post_views_count',true)){echo get_post_meta(get_the_ID(),'_post_views_count',true);}else echo '0'; }
  }
}
//code dem
 if ( ! function_exists( 'set_post_views' ) ) {
    function set_post_views($postID) {
       $user = wp_get_current_user();
       $user_roles=$user->roles;
       echo $user_roles[0];
       if($user_roles[0]!="administrator" && $user_roles[0]!="editor" && $user_roles[0]!="author")
       {
        $count_key='_post_views_count';
       $count= get_post_meta($postID, $count_key, true);
       if($count=="")
       {
        $count=0;
        delete_post_meta($postID, $count_key);
        add_post_meta($postID, $count_key, "0");
       }
       else
       {
        $count++;
        update_post_meta($postID, $count_key, $count);
       }
       }
    }
}
//code update
 if ( ! function_exists( 'update_post_views' ) ) {
    function update_post_views($postID) {
       if(!is_single()) return;
       if(empty($postID))
       {
         global $post;
         $postID = $post->ID;
       }
     set_post_views($postID);
    }
}
add_action('wp_head','update_post_views');

?>
