<svg id="zalo-svg" xmlns="http://www.w3.org/2000/svg" xmlns:xlink="http://www.w3.org/1999/xlink" x="0px" y="0px"
	 viewBox="0 0 60 60" style="enable-background:new 0 0 60 60;" xml:space="preserve">
<g stroke="none" stroke-width="1" fill="none" fill-rule="evenodd"><g>
<circle fill="#009DFF" cx="30" cy="30" r="30"></circle>
<svg x="10" y="10"><g transform="translate(0.000000, -10.000000)" fill="#FFFFFF"><g id="logo" transform="translate(0.000000, 10.000000)"><path d="M20,0 C31.2666,0 40,8.2528 40,19.4 C40,30.5472 31.2666,38.8 20,38.8 C17.9763,38.8 16.0348,38.5327 14.2106,38.0311 C13.856,37.9335 13.4789,37.9612 13.1424,38.1098 L9.1727,39.8621 C8.1343,40.3205 6.9621,39.5819 6.9273,38.4474 L6.8184,34.8894 C6.805,34.4513 6.6078,34.0414 6.2811,33.7492 C2.3896,30.2691 0,25.2307 0,19.4 C0,8.2528 8.7334,0 20,0 Z "></path><text style="font-family:Century Gothic;font-weight:bold;font-size:15px;letter-spacing:0.2px;fill:#009DFF;" x="5" y="25" >Zalo</text></g></g></svg></g></g>
</svg>
