<svg xmlns="http://www.w3.org/2000/svg" width="24" height="24" viewBox="0 0 24 24">
    <g fill="none" fill-rule="evenodd">
        <g fill="#FFF">
            <g>
                <g>
                    <g>
                        <g>
                            <path d="M19.5 1.5H6c-.828 0-1.5.672-1.5 1.5v3H3v1.5h1.5v3.75H3v1.5h1.5v3.75H3V18h1.5v3c0 .828.672 1.5 1.5 1.5h13.5c.828 0 1.5-.672 1.5-1.5V3c0-.828-.672-1.5-1.5-1.5zm0 19.5H6v-3h1.5v-1.5H6v-3.75h1.5v-1.5H6V7.5h1.5V6H6V3h13.5v18zm-9-15h6v1.5h-6V6zm0 5.25h6v1.5h-6v-1.5zm0 5.25h6V18h-6v-1.5z" transform="translate(-986 -3890) translate(0 3787) translate(165 88) translate(797) translate(24 15)"/>
                        </g>
                    </g>
                </g>
            </g>
        </g>
    </g>
</svg>
