<?xml version="1.0" encoding="UTF-8"?>
<svg width="45px" height="38px" viewBox="0 0 45 38" version="1.1" xmlns="http://www.w3.org/2000/svg" xmlns:xlink="http://www.w3.org/1999/xlink">
    <title>1BD59FCD-6010-422C-9D01-841B87892AA7</title>
    <g id="Request-a-Quote" stroke="none" stroke-width="1" fill="none" fill-rule="evenodd">
        <g id="yourquote-1" transform="translate(-197.000000, -866.000000)" fill-rule="nonzero">
            <g id="send" transform="translate(197.000000, 866.000000)">
                <g id="Group" transform="translate(0.716003, 9.993286)">
                    <path d="M2.07693897,27.5437212 C0.929884593,27.5437212 0,26.6134151 0,25.4658549 L0,2.08705557 C0,0.939495368 0.929884593,0.00918924938 2.07693897,0.00918924938 L41.0388505,0.00918924938 C42.1859049,0.00918924938 43.1157895,0.939495368 43.1157895,2.08705557 L43.1157895,25.4658549 C43.1157895,26.6134151 42.1859049,27.5437212 41.0388505,27.5437212 L2.07693897,27.5437212 Z" id="Path" fill="#FDBF00"></path>
                    <path d="M41.0388505,0.00918924938 L21.5210534,0.00918924938 L21.5210534,27.5436369 L41.0388505,27.5436369 C42.1859049,27.5436369 43.1157895,26.6133308 43.1157895,25.4657706 L43.1157895,2.08705557 C43.1157895,0.939495368 42.1859049,0.00918924938 41.0388505,0.00918924938 L41.0388505,0.00918924938 Z" id="Path" fill="#FF9100"></path>
                    <path d="M18.8115737,13.0805171 L0.633046547,26.9586442 C1.00677079,27.3205658 1.51572032,27.5436369 2.07693897,27.5436369 L41.0388505,27.5436369 C41.6000692,27.5436369 42.1089344,27.3205658 42.4826586,26.9586442 L24.3041314,13.0805171 C22.6823554,11.8424133 20.4332655,11.8424133 18.8115737,13.0805171 Z" id="Path" fill="#FF9100"></path>
                    <path d="M21.5210534,12.1525072 L21.5210534,27.5436369 L41.0388505,27.5436369 C41.6000692,27.5436369 42.1089344,27.3205658 42.4826586,26.9586442 L24.3041314,13.0805171 C23.4830003,12.4536248 22.5010152,12.1447312 21.5210534,12.1525072 L21.5210534,12.1525072 Z" id="Path" fill="#FF641A"></path>
                    <path d="M24.3042157,14.4723933 L42.4827429,0.594266228 C42.1090187,0.232344691 41.6000692,0.00927355442 41.0388505,0.00927355442 L2.07685466,0.00927355442 C1.51563601,0.00927355442 1.00677079,0.232344691 0.633046547,0.594266228 L18.8116581,14.4724776 C20.4333498,15.7104972 22.6824397,15.7104972 24.3042157,14.4723933 L24.3042157,14.4723933 Z" id="Path" fill="#FFDA2D"></path>
                    <path d="M21.5210534,0.00910494434 L21.5210534,15.400319 C22.5010152,15.408095 23.4830846,15.0992856 24.3042157,14.472309 L42.4827429,0.594181923 C42.1090187,0.232260386 41.6000692,0.00910494434 41.0388505,0.00910494434 L21.5210534,0.00910494434 L21.5210534,0.00910494434 Z" id="Path" fill="#FDBF00"></path>
                </g>
                <g id="Group" transform="translate(9.177589, 0.000000)" fill="#6AC259">
                    <path d="M0.630854616,14.5099091 L13.7862346,14.5099091 C13.8662401,14.5099091 13.9310707,14.5736437 13.9310707,14.652216 L13.9310707,19.5972967 C13.9310707,20.0900597 14.5132813,20.3616905 14.9017589,20.0501834 L26.5057575,10.7446774 C26.7950924,10.5126699 26.7978745,10.0789205 26.511406,9.84345649 L14.7798538,0.197273794 C14.3927251,-0.121062038 13.8035171,0.149472836 13.8035171,0.645607998 L13.8035171,5.25093943 C13.8035171,5.30101662 13.7622077,5.34156735 13.7112874,5.34156735 L0.666347037,5.34156735 C0.338906261,5.34156735 0.0730081648,5.6017327 0.0716592841,5.92352504 L0.036076807,13.9228088 C0.0346493715,14.2466244 0.301306214,14.5099091 0.630854616,14.5099091 Z" id="Path"></path>
                    <path d="M0.0553041064,10.3498769 L0.0394490086,13.9228088 C0.0380215731,14.2466244 0.304678415,14.5099091 0.634142512,14.5099091 L13.7895225,14.5099091 C13.869528,14.5099091 13.9343586,14.5736437 13.9343586,14.652216 L13.9343586,19.5972967 C13.9343586,20.0900597 14.5165692,20.3616905 14.9050468,20.0501834 L26.5090454,10.7446774 C26.6379478,10.6413194 26.7096071,10.4979165 26.7245291,10.3498769 L0.0553041064,10.3498769 Z" id="Path"></path>
                </g>
            </g>
        </g>
    </g>
</svg>