<?xml version="1.0" encoding="utf-8"?>
<!-- Generator: Adobe Illustrator 25.4.1, SVG Export Plug-In . SVG Version: 6.00 Build 0)  -->
<svg version="1.1" id="Layer_1" xmlns="http://www.w3.org/2000/svg" xmlns:xlink="http://www.w3.org/1999/xlink" x="0px" y="0px"
	 viewBox="0 0 144 144" style="enable-background:new 0 0 144 144;" xml:space="preserve">
<style type="text/css">
	.st0{fill:#ABA5A5;}
	.st1{fill:#EEEEEE;}
</style>
<path class="st0" d="M45,108V20.5L41.4,18C25.9,24.2,15,39.3,15,57v30c0,23.2,18.8,42,42,42h30c14.2,0,26.6-7,34.3-17.8V108H45z"/>
<path class="st1" d="M87,15H57c-5.5,0-10.8,1.1-15.6,3C31.4,27.8,24,43.6,24,57c0,20.3,2.8,32.2,11.1,43.8c0.6,0.9,1.1,2,1.1,3.1
	c0.1,2.5-0.4,7.1-4.9,11.2c-0.5,0.4-0.2,1.3,0.5,1.3c2.8,0.1,8.5,0,14.4-2.6c1.7-0.7,3.6-0.6,5.2,0.2c9.9,5.3,21.6,6,32.6,6
	c14,0,28-3.1,37.3-8.7c4.9-6.9,7.7-15.2,7.7-24.3V57C129,33.8,110.2,15,87,15z"/>
<path class="st0" d="M110.2,81C104,81,99,76,99,69.8s5-11.2,11.2-11.2s11.2,5,11.2,11.2S116.5,81,110.2,81z M110.2,63
	c-3.7,0-6.8,3-6.8,6.8s3,6.8,6.8,6.8s6.8-3,6.8-6.8S114,63,110.2,63z"/>
<path class="st0" d="M94.5,81h-3c-0.8,0-1.5-0.7-1.5-1.5V54h4.5V81z"/>
<path class="st0" d="M81,59.2v1.6c-1.9-1.4-4.2-2.3-6.8-2.3c-6.2,0-11.2,5-11.2,11.2S68,81,74.2,81c2.5,0,4.9-0.9,6.8-2.3v0.8
	c0,0.8,0.7,1.5,1.5,1.5h3V59.2H81z M74.2,76.5c-3.7,0-6.8-3-6.8-6.8s3-6.8,6.8-6.8s6.8,3,6.8,6.8S78,76.5,74.2,76.5z"/>
<path class="st0" d="M63.8,54h-24v4.5h16L39,78h0.1c-0.5,0.6-0.8,1.4-0.8,2.2V81h22.5c0.8,0,1.5-0.7,1.5-1.5v-3h-16L63,57h-0.1
	c0.5-0.6,0.8-1.4,0.8-2.2V54z"/>
</svg>
